soortkaart,card orientation,size,size number,? 1,? 2,? 10,? 50,? 100,? 200,enveloppen,Envelop goud/zilver,prf,Parelmoer,oud-hollands,Silk MC,Fotokaart,Natuurkarton,end
single portrait,card,klein 1,5.4x8.1 cm,0,0,0,0,0,0,0,0,0,0,0,0,0,0,end
single portrait,card,postkaart,10x15 cm,1.65,1.55,1.25,1.1,0.95,0.85,0.25,0.35,1,0.1,0.1,0,0,0,end
single portrait,card,normaal 1,11.4x17.1 cm,2.2,1.9,1.7,1.55,1.4,1.2,0.25,0.35,1,0.15,0.15,0,0,0,end
single portrait,card,groot 1,14.4x21.6 cm,2.3,2,1.8,1.65,1.4,1.3,0.25,0.35,1,0.15,0.15,0,0,0,end
single landscape,card,klein 2,8.1x5.4 cm,0,0,0,0,0,0,0,0,0,0,0,0,0,0,end
single landscape,card,postkaart 2,15x10 cm,1.65,1.55,1.25,1.1,0.95,0.85,0.25,0.35,1,0.1,0.1,0,0,0,end
single landscape,card,normaal 2,17.1x11.4 cm,2.2,1.9,1.7,1.55,1.4,1.2,0.25,0.35,1,0.15,0.15,0,0,0,end
single landscape,card,groot 2,21.6x14.4 cm,2.3,2,1.8,1.65,1.4,1.3,0.25,0.35,1,0.15,0.15,0,0,0,end
single square,card,extra klein,8x8 cm,1.3,1.1,0.9,0.8,0.7,0.6,0.25,0.35,1,0.15,0.15,0,0,0,end
single square,card,klein,11x11 cm,1.55,1.25,0.95,0.9,0.85,0.75,0.25,0.35,1,0.15,0.15,0,0,0,end
single square,card,normaal,13x13 cm,2.1,1.8,1.6,1.45,1.3,1.1,0.25,0.35,1,0.15,0.15,0,0,0,end
single square,card,groot,15x15 cm,2.2,1.9,1.7,1.55,1.4,1.2,0.25,0.35,1,0.15,0.15,0,0,0,end
single belgiansquare,card,normaal 3,13.5x12 cm,0,0,0,0,0,0,0,0,,0,0,0,0,0,end
single panorama,card,normaal 4,21x10 cm,0,0,0,0,0,0,0,0,,0,0,0,0,0,end
single triple,card,normaal 5,30x10 cm,0,0,0,0,0,0,0,0,,0,0,0,0,0,end
single triple,card,groot 3,39x13 cm,0,0,0,0,0,0,0,0,,0,0,0,0,0,end
double portrait,card,postkaart,10x15 cm,0,0,0,0,0,0,0,0,,0,0,0,0,0,end
double portrait,card,normaal 1,11.4x17.1 cm,2.25,2.1,2,1.85,1.7,1.6,0.25,0.35,1,0.45,0.45,0,0,0,end
double portrait,card,groot 1,14.4x21.6 cm,0,0,0,0,0,0,0,0,,0,0,0,0,0,end
double portrait,card,extra groot 1,20x30 cm,0,0,0,0,0,0,0,0,,0,0,0,0,0,end
double landscape,card,postkaart 2,15x10 cm,2.4,2.05,1.85,1.75,1.65,1.5,0.25,0.35,1,0.25,0.25,0,0,0,end
double landscape,card,normaal 2,17.1x11.4 cm,2.5,2.15,2,1.9,1.8,1.6,0.25,0.35,1,0.45,0.45,0,0,0,end
double landscape,card,groot 2,21.6x14.4 cm,0,0,0,0,0,0,0,0,,0,0,0,0,0,end
double landscape,card,extra groot 2,30x20 cm,0,0,0,0,0,0,0,0,,0,0,0,0,0,end
double square,card,klein,11x11 cm,2.4,2.05,1.9,1.8,1.7,1.5,0.25,0.35,1,0.2,0.2,0,0,0,end
double square,card,normaal,13x13 cm,2.5,2.15,2,1.9,1.8,1.6,0.25,0.35,1,0.25,0.25,0,0,0,end
double square,card,groot,15x15 cm,2.6,2.25,2.1,2,1.9,1.7,0.25,0.35,1,0.3,0.3,0,0,0,end
double square,card,extra groot ,21x21 cm,0,0,0,0,0,0,0,0,0,0,0,0,0,0,end
double belgiansquare,card,normaal 3,13.5x12 cm,0,0,0,0,0,0,0,0,0,0,0,0,0,0,end
double panorama,card,normaal 4,21x10 cm,0,0,0,0,0,0,0,0,0,0,0,0,0,0,end
